id,shop_name,type,operate,cost,category,desc,loc
002,Ahzaar Maju,BS,{sunday:[0000-2400]&monday:[0000-2400]&tuesday:[0000-2400]&wednesday:[0000-2400]&thursday:[0000-2400]&friday:[0000-2400]&saturday:[0000-2400]},3,[L|H|S|T],-,SL
003,Black Board,RT,{sunday:[1030-2300]&monday:[1030-2300]&tuesday:[1030-2300]&wednesday:[1030-2300]&thursday:[1030-2300]&friday:[1030-2300]&saturday:[1030-2300]},3,[L|H|T],-,SL
004,Family Mart,OT,{sunday:[0000-2400]&monday:[0000-2400]&tuesday:[0000-2400]&wednesday:[0000-2400]&thursday:[0000-2400]&friday:[0000-2400]&saturday:[0000-2400]},4,[L|T|S],-,SL
005,MZ,BS,{sunday:[0000-2400]&monday:[0000-2400]&tuesday:[0000-2400]&wednesday:[0000-2400]&thursday:[0000-2400]&friday:[0000-2400]&saturday:[0000-2400]},2,[L|H|S|T],-,SL
006,Sushi Mentai,RT,{sunday:[1030-2300]&monday:[1030-2300]&tuesday:[1030-2300]&wednesday:[1030-2300]&thursday:[1030-2300]&friday:[1030-2300]&saturday:[1030-2300]},4,[L|H],-,SL
007,MeiMei,RT,{sunday:[0700-1500]&monday:[0700-1500]&tuesday:[0700-1500]&wednesday:[0700-1500]&thursday:[0700-1500]&friday:[0700-1500]&saturday:[0700-1500]},2,[L|H],-,SL
008,MeiMei Mamak,MK,{sunday:[1700-2400|0000-0300]&monday:[1700-2400|0000-0300]&tuesday:[1700-2400|0000-0300]&wednesday:[1700-2400|0000-0300]&thursday:[1700-2400|0000-0300]&friday:[1700-2400|0000-0300]&saturday:[1700-2400|0000-0300]},1,[L|H|S],-,SL
009,Ibrahim Maju,BS,{sunday:[0000-2400]&monday:[0000-2400]&tuesday:[0000-2400]&wednesday:[0000-2400]&thursday:[0000-2400]&friday:[0000-2400]&saturday:[0000-2400]},3,[L|H|S|T],-,SL
010,S5,MK,{sunday:[1700-2400|0000-0300]&monday:[1700-2400|0000-0300]&tuesday:[1700-2400|0000-0300]&wednesday:[1700-2400|0000-0300]&thursday:[1700-2400|0000-0300]&friday:[1700-2400|0000-0300]&saturday:[1700-2400|0000-0300]},2,[L|H|S],-,SL
011,亚洲美食阁,RT,{sunday:[0700-2300]&monday:[0700-2300]&tuesday:[0700-2300]&wednesday:[0700-2300]&thursday:[0700-2300]&friday:[0700-2300]&saturday:[0700-2300]},2,[H],-,SL
013,Pasar Malam,OT,{sunday:[]&monday:[]&tuesday:[1700-2100]&wednesday:[]&thursday:[]&friday:[]&saturday:[]},1,[L|H|S],Many People,SL
012,S4,MK,{sunday:[1700-2400|0000-0300]&monday:[1700-2400|0000-0300]&tuesday:[1700-2400|0000-0300]&wednesday:[1700-2400|0000-0300]&thursday:[1700-2400|0000-0300]&friday:[1700-2400|0000-0300]&saturday:[1700-2400|0000-0300]},2,[H|L|S],-,SL
014,Bao God,RT,{sunday:[1000-2300]&monday:[1000-2300]&tuesday:[1000-2300]&wednesday:[1000-2300]&thursday:[1000-2300]&friday:[1000-2300]&saturday:[1000-2300]},4,[L|H],-,SL
015,Above Black Board,RT,{sunday:[1000-2200]&monday:[1000-2200]&tuesday:[1000-2200]&wednesday:[1000-2200]&thursday:[1000-2200]&friday:[1000-2200]&saturday:[1000-2200]},5,[L|H],-,SL
016,天下,RT,{sunday:[0700-1400|1600-2200]&monday:[0700-1400|1600-2200]&tuesday:[0700-1400|1600-2200]&wednesday:[0700-1400|1600-2200]&thursday:[0700-1400|1600-2200]&friday:[0700-1400|1600-2200]&saturday:[0700-1400|1600-2200]},3,[L|H],-,SL
017,邱太,RT,{sunday:[1000-2200]&monday:[1000-2200]&tuesday:[1000-2200]&wednesday:[1000-2200]&thursday:[1000-2200]&friday:[1000-2200]&saturday:[1000-2200]},4,[L|H],-,SL
018,B记,MR,{sunday:[1000-1500|1600-2300]&monday:[1000-1500|1600-2300]&tuesday:[1000-1500|1600-2300]&wednesday:[1000-1500|1600-2300]&thursday:[1000-1500|1600-2300]&friday:[1000-1500|1600-2300]&saturday:[1000-1500|1600-2300]},2,[L|H],-,SL
019,Ozen,RT,{sunday:[1000-2300]&monday:[1000-2300]&tuesday:[1000-2300]&wednesday:[1000-2300]&thursday:[1000-2300]&friday:[1000-2300]&saturday:[1000-2300]},4,[L|H],-,SL
020,Sun Popular,RT,{sunday:[1000-2300]&monday:[1000-2300]&tuesday:[1000-2300]&wednesday:[1000-2300]&thursday:[1000-2300]&friday:[1000-2300]&saturday:[1000-2300]},3,[L|H],-,SL
021,666,RT,{sunday:[1000-1500|1700-2300]&monday:[1000-1500|1700-2300]&tuesday:[1000-1500|1700-2300]&wednesday:[1000-1500|1700-2300]&thursday:[1000-1500|1700-2300]&friday:[1000-1500|1700-2300]&saturday:[1000-1500|1700-2300]},3,[L|H],-,SL
022,吉吉,,{sunday:[]&monday:[]&tuesday:[]&wednesday:[]&thursday:[]&friday:[]&saturday:[]},1,[L|H],-,SL
023,No Sign Board,,{sunday:[]&monday:[]&tuesday:[]&wednesday:[]&thursday:[]&friday:[]&saturday:[]},1,[L|H],-,SL
024,Behind Fan hua,,{sunday:[]&monday:[]&tuesday:[]&wednesday:[]&thursday:[]&friday:[]&saturday:[]},1,[L|H],-,SL
025,Fan hua,,{sunday:[]&monday:[]&tuesday:[]&wednesday:[]&thursday:[]&friday:[]&saturday:[]},1,[L|H],-,SL
026,Kuih house beside fanhua,,{sunday:[]&monday:[]&tuesday:[]&wednesday:[]&thursday:[]&friday:[]&saturday:[]},1,[L|H],-,SL
027,Rock and bow,,{sunday:[]&monday:[]&tuesday:[]&wednesday:[]&thursday:[]&friday:[]&saturday:[]},1,[L|H],-,SL
028,潮州粉,,{sunday:[]&monday:[]&tuesday:[]&wednesday:[]&thursday:[]&friday:[]&saturday:[]},1,[L|H],-,SL
029,above kk mart,,{sunday:[]&monday:[]&tuesday:[]&wednesday:[]&thursday:[]&friday:[]&saturday:[]},1,[L|H],-,SL
030,S4,,{sunday:[]&monday:[]&tuesday:[]&wednesday:[]&thursday:[]&friday:[]&saturday:[]},1,[L|H],-,SL
031,S3,,{sunday:[]&monday:[]&tuesday:[]&wednesday:[]&thursday:[]&friday:[]&saturday:[]},1,[L|H],-,SL
032,S2,,{sunday:[]&monday:[]&tuesday:[]&wednesday:[]&thursday:[]&friday:[]&saturday:[]},1,[L|H],-,SL
033,Ming Wei,,{sunday:[]&monday:[]&tuesday:[]&wednesday:[]&thursday:[]&friday:[]&saturday:[]},1,[L|H],-,SL
034,Burger front of Boss,,{sunday:[]&monday:[]&tuesday:[]&wednesday:[]&thursday:[]&friday:[]&saturday:[]},1,[L|H],-,SL
035,burger next to cypress,,{sunday:[]&monday:[]&tuesday:[]&wednesday:[]&thursday:[]&friday:[]&saturday:[]},1,[L|H],-,SL